{
	"info": {
		"_postman_id": "071b57be-ebcd-4832-98a2-78e3b098a3ac",
		"name": "Booking-WebserviceTest",
		"schema": "https://schema.getpostman.com/json/collection/v2.1.0/collection.json",
		"_exporter_id": "14109297"
	},
	"item": [
		{
			"name": "01-ListBookings",
			"event": [
				{
					"listen": "test",
					"script": {
						"exec": [
							"pm.test(\"Status code is 200\", function () {",
							"   pm.response.to.have.status(200);",
							"});",
							"",
							"pm.test(\"Body matches string\", function () {",
							"   pm.expect(pm.response.text()).to.include(\"bookingid\");",
							"});"
						],
						"type": "text/javascript"
					}
				}
			],
			"request": {
				"method": "GET",
				"header": [],
				"url": {
					"raw": "https://restful-booker.herokuapp.com/booking",
					"protocol": "https",
					"host": [
						"restful-booker",
						"herokuapp",
						"com"
					],
					"path": [
						"booking"
					]
				}
			},
			"response": []
		},
		{
			"name": "02-CreateBooking",
			"event": [
				{
					"listen": "test",
					"script": {
						"exec": [
							"pm.test(\"Verification of Booking- 200\", function () {",
							"   pm.response.to.have.status(200);",
							"});",
							"",
							"pm.test(\"Body matches string\", function () {",
							"   pm.expect(pm.response.text()).to.include(\"bookingid\");",
							"});"
						],
						"type": "text/javascript"
					}
				}
			],
			"request": {
				"method": "POST",
				"header": [],
				"body": {
					"mode": "raw",
					"raw": "{\n    \"firstname\" : \"Jaya\",\n    \"lastname\" : \"Spandan\",\n    \"totalprice\" : 250,\n    \"depositpaid\" : true,\n    \"bookingdates\" : {\n        \"checkin\" : \"2022-07-08\",\n        \"checkout\" : \"2022-08-08\"\n    },\n    \"additionalneeds\" : \"Breakfast\"\n}",
					"options": {
						"raw": {
							"language": "json"
						}
					}
				},
				"url": {
					"raw": "https://restful-booker.herokuapp.com/booking",
					"protocol": "https",
					"host": [
						"restful-booker",
						"herokuapp",
						"com"
					],
					"path": [
						"booking"
					]
				}
			},
			"response": []
		},
		{
			"name": "03-RetrieveBooking",
			"event": [
				{
					"listen": "test",
					"script": {
						"exec": [
							"pm.test(\"Status code is 200\", function () {",
							"   pm.response.to.have.status(200);",
							"});",
							"",
							"",
							"",
							"pm.test(\"Status code is 200\", function () {",
							"   pm.response.to.have.status(200);",
							"});"
						],
						"type": "text/javascript"
					}
				}
			],
			"request": {
				"method": "GET",
				"header": [],
				"url": {
					"raw": "https://restful-booker.herokuapp.com/booking/:id",
					"protocol": "https",
					"host": [
						"restful-booker",
						"herokuapp",
						"com"
					],
					"path": [
						"booking",
						":id"
					],
					"variable": [
						{
							"key": "id",
							"value": "1479"
						}
					]
				}
			},
			"response": []
		},
		{
			"name": "04-workspace_coll",
			"event": [
				{
					"listen": "test",
					"script": {
						"exec": [
							"pm.test(\"Status code is 200\", function () {",
							"   pm.response.to.have.status(200);",
							"});"
						],
						"type": "text/javascript"
					}
				}
			],
			"request": {
				"method": "GET",
				"header": [],
				"url": {
					"raw": "https://api.getpostman.com/workspaces?apikey=PMAK-62d096cd46cbdf277b54935f-76e0e7c02de6daefb6c3e17c5fa054f3c8",
					"protocol": "https",
					"host": [
						"api",
						"getpostman",
						"com"
					],
					"path": [
						"workspaces"
					],
					"query": [
						{
							"key": "apikey",
							"value": "PMAK-62d096cd46cbdf277b54935f-76e0e7c02de6daefb6c3e17c5fa054f3c8"
						}
					]
				}
			},
			"response": []
		},
		{
			"name": "05-getcollection_ws",
			"event": [
				{
					"listen": "test",
					"script": {
						"exec": [
							"pm.test(\"Status code is 200\", function () {",
							"   pm.response.to.have.status(200);",
							"});"
						],
						"type": "text/javascript"
					}
				}
			],
			"request": {
				"auth": {
					"type": "noauth"
				},
				"method": "GET",
				"header": [],
				"url": {
					"raw": "https://api.getpostman.com/collections?workspace=1c89b9c8-da9f-427f-b27a-8a1d1ce43648&apikey=PMAK-62d096cd46cbdf277b54935f-76e0e7c02de6daefb6c3e17c5fa054f3c8&work",
					"protocol": "https",
					"host": [
						"api",
						"getpostman",
						"com"
					],
					"path": [
						"collections"
					],
					"query": [
						{
							"key": "workspace",
							"value": "1c89b9c8-da9f-427f-b27a-8a1d1ce43648"
						},
						{
							"key": "apikey",
							"value": "PMAK-62d096cd46cbdf277b54935f-76e0e7c02de6daefb6c3e17c5fa054f3c8"
						},
						{
							"key": "work",
							"value": null
						}
					]
				}
			},
			"response": []
		},
		{
			"name": "06-getbookingwebservice",
			"event": [
				{
					"listen": "test",
					"script": {
						"exec": [
							"pm.test(\"Status code is 200\", function () {",
							"   pm.response.to.have.status(200);",
							"});"
						],
						"type": "text/javascript"
					}
				}
			],
			"request": {
				"method": "GET",
				"header": [],
				"url": {
					"raw": "https://api.getpostman.com/collections/14109297-071b57be-ebcd-4832-98a2-78e3b098a3ac?apikey=PMAK-62d096cd46cbdf277b54935f-76e0e7c02de6daefb6c3e17c5fa054f3c8",
					"protocol": "https",
					"host": [
						"api",
						"getpostman",
						"com"
					],
					"path": [
						"collections",
						"14109297-071b57be-ebcd-4832-98a2-78e3b098a3ac"
					],
					"query": [
						{
							"key": "apikey",
							"value": "PMAK-62d096cd46cbdf277b54935f-76e0e7c02de6daefb6c3e17c5fa054f3c8"
						}
					]
				}
			},
			"response": []
		},
		{
			"name": "07-runningcollection",
			"request": {
				"method": "GET",
				"header": [],
				"url": {
					"raw": "https://api.getpostman.com/collections/?cid={{collectionUid}}&apikey=PMAK-62d096cd46cbdf277b54935f-76e0e7c02de6daefb6c3e17c5fa054f3c8",
					"protocol": "https",
					"host": [
						"api",
						"getpostman",
						"com"
					],
					"path": [
						"collections",
						""
					],
					"query": [
						{
							"key": "cid",
							"value": "{{collectionUid}}"
						},
						{
							"key": "apikey",
							"value": "PMAK-62d096cd46cbdf277b54935f-76e0e7c02de6daefb6c3e17c5fa054f3c8"
						}
					]
				}
			},
			"response": []
		},
		{
			"name": "03-RetrieveBooking",
			"event": [
				{
					"listen": "test",
					"script": {
						"exec": [
							"pm.test(\"Status code is 200\", function () {",
							"   pm.response.to.have.status(200);",
							"});",
							"",
							"",
							"",
							"pm.test(\"Status code is 200\", function () {",
							"   pm.response.to.have.status(200);",
							"});"
						],
						"type": "text/javascript"
					}
				}
			],
			"request": {
				"method": "GET",
				"header": [],
				"url": {
					"raw": "https://restful-booker.herokuapp.com/booking/:id",
					"protocol": "https",
					"host": [
						"restful-booker",
						"herokuapp",
						"com"
					],
					"path": [
						"booking",
						":id"
					],
					"variable": [
						{
							"key": "id",
							"value": "1479"
						}
					]
				}
			},
			"response": []
		},
		{
			"name": "09-Hello World",
			"event": [
				{
					"listen": "test",
					"script": {
						"type": "text/javascript",
						"exec": [
							"const jsonData = pm.response.json();",
							"",
							"pm.test(\"Status code is 200\", function () {",
							"    pm.response.to.be.success;",
							"});",
							"",
							"pm.test(\"Ensure `data` property exists and contains `message`\", function () {",
							"    pm.response.to.have.jsonSchema({",
							"        properties: {",
							"            data: {",
							"                type: \"object\",",
							"                properties: {",
							"                    message: {",
							"                        type: \"string\"",
							"                    }",
							"                }",
							"            }",
							"        }",
							"    });",
							"});",
							"",
							"pm.test(\"Ensure valid message\", function () {",
							"    pm.expect(jsonData.data.message).to.eql('Hello, World!');",
							"})"
						]
					}
				}
			],
			"request": {
				"method": "POST",
				"header": [
					{
						"key": "Content-Type",
						"name": "Content-Type",
						"value": "application/json",
						"type": "text"
					}
				],
				"body": {
					"mode": "raw",
					"raw": "{\n\t\"message\": \"Hello, World!\"\n}"
				},
				"url": {
					"raw": "https://postman-echo.com/post",
					"protocol": "https",
					"host": [
						"postman-echo",
						"com"
					],
					"path": [
						"post"
					]
				}
			},
			"response": []
		}
	]
}